Exploratory Data Analysis | Swire Coca-Cola Capstone Project
…
Additionally, the Fast Casual Dining trade channel stands out with notable year-over-year increases in order volume. This suggests that Fast Casual Dining customers within the local market partner segment could represent less obvious but high-growth potential opportunities, making them a strategic group to explore further.

# year over year changes in gallon volume by customer
swire_data_full %>%
  filter(local_market_partner == TRUE & co2_customer == FALSE) %>%
  group_by(customer_number, year, trade_channel, sub_trade_channel) %>%
  summarize(gallons = sum(ordered_gallons + ordered_cases)) %>%
  pivot_wider(names_from = year, values_from = gallons) %>%
  mutate(unit_delta = (`2024` - `2023`)) %>%
  arrange(desc(unit_delta))

`summarise()` has grouped output by 'customer_number', 'year', 'trade_channel'.
You can override using the `.groups` argument.

# A tibble: 16,746 × 6
# Groups:   customer_number, trade_channel [16,746]
   customer_number trade_channel      sub_trade_channel `2023` `2024` unit_delta
   <chr>           <fct>              <fct>              <dbl>  <dbl>      <dbl>
 1 500733119       TRAVEL             CRUISE            139520 1.69e5     29102 
 2 600064039       TRAVEL             CRUISE            160752 1.88e5     27734.
 3 600573998       TRAVEL             CRUISE            376588 4.03e5     26077 
 4 500405618       BULK TRADE         BULK TRADE           588 2.60e4     25422 
 5 501031108       SUPERSTORE         ONLINE STORE       38909 6.12e4     22288.
 6 600261951       TRAVEL             CRUISE            106644 1.27e5     20502 
 7 600585734       TRAVEL             CRUISE             84808 1.03e5     17747 
 8 600576028       SUPERSTORE         ONLINE STORE       29744 4.65e4     16738.
 9 501202275       PROFESSIONAL SERV… OTHER PROFESSION…    216 1.67e4     16494 
10 501562278       GENERAL            COMPREHENSIVE PR…   5858 2.22e4     16343 
# ℹ 16,736 more rows
…
