Presentation Code | Swire Coca-Cola Capstone Project
…
      # Mid-market
      # These customers have either less than 75%tile franchise count OR annual volume is less than 95%tile
      , primary_group_customers_2024 <= 23 | annual_total <= 1841  ~ "Mid-market"
      
      # Mid-market
      # These customers have greater than 75%tile franchise count AND annual volume is greater than 95%tile
      , primary_group_customers_2024 > 23 & annual_total > 1841 ~ "Enterprise"
      , TRUE ~ "X"
    ), 
    tier = factor(tier, levels = c("SMB", "Mid-market", "Enterprise"))
  )

swire_2025_est_tiers

# A tibble: 30,322 × 76
   customer_number primary_group_number cold_drink_channel frequent_order_type
   <chr>           <chr>                <fct>              <fct>              
 1 500245678       <NA>                 EVENT              SALES REP          
 2 500245685       <NA>                 DINING             OTHER              
 3 500245686       8333                 GOODS              CALL CENTER        
 4 500245687       <NA>                 EVENT              OTHER              
 5 500245689       <NA>                 DINING             OTHER              
 6 500245690       2272                 DINING             SALES REP          
 7 500245695       <NA>                 WELLNESS           OTHER              
 8 500245698       8940                 DINING             OTHER              
 9 500245701       <NA>                 DINING             SALES REP          
10 500245704       2487                 DINING             OTHER              
# ℹ 30,312 more rows
# ℹ 72 more variables: trade_channel <fct>, sub_trade_channel <fct>,
#   local_market_partner <int>, co2_customer <int>, state <fct>, lat <dbl>,
#   lon <dbl>, primary_group_customers_2023 <dbl>,
#   primary_group_customers_2024 <dbl>, return_frequency_2023 <dbl>,
#   return_frequency_2024 <dbl>, year_2023 <int>, year_2024 <int>,
#   order_transactions_2023 <dbl>, order_transactions_2024 <dbl>, …
…
